…
The following post details the application of an ARIMA model to forecast the occupancy of a library floor dataset with hourly increments. The code is written in R and is rendered from an rmarkdown. This is personal project combining a dataset from a prior project and methodology associated with a past course.

## Data Cleaning 

The data contains multiple floors of the library. I filtered the dataset down to the averages for the entirety of the library. The *average_occupancy* variable represents the average number of occupants hourly. The project focuses on a univariate analysis of the average occupants for the entire library. More information and exploratory analysis on the dataset can be found [here](https://dailynexus.com/2023-11-03/the-best-time-to-hit-the-books-exploring-occupancy-trends-in-the-ucsb-library/). There are gaps of time in the dataset, most of them occuring in September 2022. Later on, I use the ts_tibble to handle these gaps. 

``` r
floor = read_csv('libFloor.csv', show_col_types = FALSE)
floor.ts = floor[(floor$Location == 'UCSB Library'), c("Timestamp", "Average Occupancy", "Peak Occupancy")] #, "Quarter", "Hour")]
floor.ts <- floor.ts %>% clean_names()
floor.ts
```

    ## # A tibble: 14,386 × 3
    ##    timestamp           average_occupancy peak_occupancy
    ##    <dttm>                          <dbl>          <dbl>
    ##  1 2021-09-22 16:00:00                12              2
    ##  2 2021-09-25 12:00:00                30             39
    ##  3 2021-09-25 13:00:00                21             27
    ##  4 2021-09-25 14:00:00                91            199
    ##  5 2021-09-25 15:00:00                73             84
    ##  6 2021-09-25 16:00:00                56             64
    ##  7 2021-09-25 17:00:00                44             60
    ##  8 2021-09-25 18:00:00                13             34
    ##  9 2021-09-25 19:00:00                 3              5
    ## 10 2021-09-25 20:00:00                 1              3
    ## # ℹ 14,376 more rows
…
